2023-05-30T03:46:20.665829Z 0 [Warning] [MY-011068] [Server] The syntax '--skip-host-cache' is deprecated and will be removed in a future release. Please use SET GLOBAL host_cache_size=0 instead.
2023-05-30T03:46:20.728068Z 0 [System] [MY-010116] [Server] /usr/sbin/mysqld (mysqld 8.0.33) starting as process 122
2023-05-30T03:46:20.777274Z 0 [Warning] [MY-010159] [Server] Setting lower_case_table_names=2 because file system for /var/lib/mysql/ is case insensitive
2023-05-30T03:46:21.054823Z 1 [System] [MY-013576] [InnoDB] InnoDB initialization has started.
2023-05-30T03:46:30.981508Z 1 [System] [MY-013577] [InnoDB] InnoDB initialization has ended.
2023-05-30T03:46:33.338842Z 0 [Warning] [MY-010068] [Server] CA certificate ca.pem is self signed.
2023-05-30T03:46:33.341907Z 0 [System] [MY-013602] [Server] Channel mysql_main configured to support TLS. Encrypted connections are now supported for this channel.
2023-05-30T03:46:33.382814Z 0 [Warning] [MY-011810] [Server] Insecure configuration for --pid-file: Location '/var/run/mysqld' in the path is accessible to all OS users. Consider choosing a different directory.
2023-05-30T03:46:33.618032Z 0 [System] [MY-011323] [Server] X Plugin ready for connections. Socket: /var/run/mysqld/mysqlx.sock
2023-05-30T03:46:33.618701Z 0 [System] [MY-010931] [Server] /usr/sbin/mysqld: ready for connections. Version: '8.0.33'  socket: '/var/run/mysqld/mysqld.sock'  port: 0  MySQL Community Server - GPL.
2023-05-30T03:46:56.966945Z 13 [System] [MY-013172] [Server] Received SHUTDOWN from user root. Shutting down mysqld (Version: 8.0.33).
2023-05-30T03:47:01.253642Z 0 [System] [MY-010910] [Server] /usr/sbin/mysqld: Shutdown complete (mysqld 8.0.33)  MySQL Community Server - GPL.
